…
</center>

<br>

Após a extração, os dados tinham a seguinte cara.


```r
dados %>% 
  dplyr::as_tibble() %>% 
  purrr::set_names(~sub('Count', '', .x))
```

```
## # A tibble: 420 x 8
##    title              time   duration view  like  dislike favorite comment
##    <chr>              <chr>  <chr>    <chr> <chr> <chr>   <chr>    <chr>  
##  1 Criacionismo [2] … 2012-… PT14M20S 2144… 11838 246     0        1315   
##  2 P.C.R.Evo [3] - N… 2016-… PT13M48S 1132… 12125 263     0        1134   
##  3 Jurassic World - … 2015-… PT24M53S 2686… 24762 297     0        1742   
##  4 Agnóstico ou Ateu… 2012-… PT13M16S 5694… 34970 1223    0        5374   
##  5 DUBLANDO OS CANDI… 2018-… PT1M39S  47067 10686 170     0        962    
##  6 A maldição da men… 2012-… PT10M56S 2666… 16599 338     0        1578   
##  7 O sumiço das abel… 2016-… PT12M12S 1294… 15989 139     0        1294   
##  8 Evolução e Disper… 2013-… PT17M1S  1921… 15569 150     0        2254   
##  9 Cesariana está re… 2016-… PT20M14S 1584… 16705 316     0        1666   
## 10 Fim do Museu Naci… 2018-… PT24M11S 1862… 32230 307     0        2      
## # ... with 410 more rows
``` 
…
